%YAML 1.1
%TAG !u! tag:unity3d.com,2011:
--- !u!162 &1
EditorUserSettings:
  m_ObjectHideFlags: 0
  serializedVersion: 4
  m_ConfigSettings:
    RecentlyUsedSceneGuid-0:
      value: 5a5757560101590a5d0c0e24427b5d44434e4c7a7b7a23677f2b4565b7b5353a
      flags: 0
    RecentlyUsedSceneGuid-1:
      value: 0000035301025f5d0c0b097011730744444e4e2c7e7176682b791837e1e53160
      flags: 0
    RecentlyUsedSceneGuid-2:
      value: 5301030456035b080b560e7b47250d444f4f4e7f7e7e7f357a2d4f32e7e16d6e
      flags: 0
    RecentlyUsedSceneGuid-3:
      value: 5652520406540f08585e0f244820594444164e7d742e74617b28486be4b1363a
      flags: 0
    RecentlyUsedSceneGuid-4:
      value: 520604560151590b5f5b547216760944104f412b797e70607d7c4937e4b03160
      flags: 0
    RecentlyUsedSceneGuid-5:
      value: 07555553575358595f5f0824437a5c44434e197c2e7a23312b284e62e6e66d3c
      flags: 0
    RecentlyUsedSceneGuid-6:
      value: 5a0707505606585a0f5a0977407707444f4e4028747f7f637e7b446ae6b6353b
      flags: 0
    RecentlyUsedSceneGuid-7:
      value: 0508055100560f0b55595b7343265c444e164e72782b2535752f486abae23660
      flags: 0
    RecentlyUsedSceneGuid-8:
      value: 54095556560c0c5859565e2747705a44414f4a73757b256128784d32e0e5606e
      flags: 0
    vcSharedLogLevel:
      value: 0d5e400f0650
      flags: 0
  m_VCAutomaticAdd: 1
  m_VCDebugCom: 0
  m_VCDebugCmd: 0
  m_VCDebugOut: 0
  m_SemanticMergeMode: 2
  m_DesiredImportWorkerCount: 4
  m_StandbyImportWorkerCount: 2
  m_IdleImportWorkerShutdownDelay: 60000
  m_VCShowFailedCheckout: 1
  m_VCOverwriteFailedCheckoutAssets: 1
  m_VCProjectOverlayIcons: 1
  m_VCHierarchyOverlayIcons: 1
  m_VCOtherOverlayIcons: 1
  m_VCAllowAsyncUpdate: 1
  m_ArtifactGarbageCollection: 1
